{
    "compilerOptions": {
        "module": "commonjs",
        "target": "es6",
        "baseUrl": "./src/",
        "paths": {
            "@components": [
                "components"
            ],
            "@hooks": [
                "hooks"
            ],
            "@reducers": [
                "reducers"
            ],
            "@saga": [
                "saga"
            ],
            "@store": [
                "store"
            ],
            "@assets":[
                "assets"
            ]
        }
    },
    "include": [
        "src/**/*"
    ]
}
